digital_circuit/keyboard/top_sim.vcd
$version Generated by VerilatedVcd $end
$timescale 1ps $end

 $scope module TOP $end
  $var wire  1 R done $end
  $scope module top_sim $end
   $var wire  1 S clk $end
   $var wire 32 T clock_period [31:0] $end
   $var wire  1 # clrn $end
   $var wire  1 R done $end
   $var wire  1 $ kbd_clk $end
   $var wire  1 % kbd_data $end
   $var wire  8 ( seg0 [7:0] $end
   $var wire  8 ) seg1 [7:0] $end
   $var wire  8 * seg2 [7:0] $end
   $var wire  8 + seg3 [7:0] $end
   $var wire  8 , seg4 [7:0] $end
   $var wire  8 - seg5 [7:0] $end
   $scope module model $end
    $var wire 32 U kbd_clk_period [31:0] $end
    $var wire 32 & kbd_sendcode__Vstatic__i [31:0] $end
    $var wire 11 ' kbd_sendcode__Vstatic__send_buffer [10:0] $end
    $var wire  1 $ ps2_clk $end
    $var wire  1 % ps2_data $end
   $upscope $end
   $scope module top_inst $end
    $var wire  4 W ERR [3:0] $end
    $var wire  4 Z FULL [3:0] $end
    $var wire  4 X GET [3:0] $end
    $var wire  4 V INIT [3:0] $end
    $var wire  4 Y RELEASE [3:0] $end
    $var wire  8 6 ascii_data [7:0] $end
    $var wire  1 S clk $end
    $var wire  8 2 count [7:0] $end
    $var wire  8 1 data [7:0] $end
    $var wire  1 0 device_ready $end
    $var wire  1 7 ena $end
    $var wire  1 . host_valid_n $end
    $var wire  8 3 key_data [7:0] $end
    $var wire  4 5 next_state [3:0] $end
    $var wire  1 / overflow $end
    $var wire  1 $ ps2_clk $end
    $var wire  1 % ps2_data $end
    $var wire  8 3 r_data [7:0] $end
    $var wire  1 # rst_n $end
    $var wire  8 ( seg0 [7:0] $end
    $var wire  8 ) seg1 [7:0] $end
    $var wire  8 * seg2 [7:0] $end
    $var wire  8 + seg3 [7:0] $end
    $var wire  8 , seg4 [7:0] $end
    $var wire  8 - seg5 [7:0] $end
    $var wire  4 4 state [3:0] $end
    $scope module inst $end
     $var wire  1 S clk $end
     $var wire  4 D count [3:0] $end
     $var wire  8 1 data [7:0] $end
     $var wire  1 0 device_ready $end
     $var wire  8 : fifo[0] [7:0] $end
     $var wire  8 ; fifo[1] [7:0] $end
     $var wire  8 < fifo[2] [7:0] $end
     $var wire  8 = fifo[3] [7:0] $end
     $var wire  8 > fifo[4] [7:0] $end
     $var wire  8 ? fifo[5] [7:0] $end
     $var wire  8 @ fifo[6] [7:0] $end
     $var wire  8 A fifo[7] [7:0] $end
     $var wire  1 . host_valid_n $end
     $var wire  8 [ last_data [7:0] $end
     $var wire  1 / overflow $end
     $var wire  1 $ ps2_clk $end
     $var wire  2 9 ps2_clk_sync [1:0] $end
     $var wire  1 % ps2_data $end
     $var wire 11 E r_data [10:0] $end
     $var wire  3 C r_point [2:0] $end
     $var wire  1 # rst_n $end
     $var wire  1 8 sample $end
     $var wire  3 B w_point [2:0] $end
    $upscope $end
    $scope module inst0 $end
     $var wire  4 F data [3:0] $end
     $var wire  8 G dout [7:0] $end
     $var wire  1 7 ena $end
     $var wire  8 ( seg [7:0] $end
    $upscope $end
    $scope module inst1 $end
     $var wire  4 H data [3:0] $end
     $var wire  8 I dout [7:0] $end
     $var wire  1 7 ena $end
     $var wire  8 ) seg [7:0] $end
    $upscope $end
    $scope module inst2 $end
     $var wire  4 J data [3:0] $end
     $var wire  8 K dout [7:0] $end
     $var wire  1 7 ena $end
     $var wire  8 * seg [7:0] $end
    $upscope $end
    $scope module inst3 $end
     $var wire  4 L data [3:0] $end
     $var wire  8 M dout [7:0] $end
     $var wire  1 7 ena $end
     $var wire  8 + seg [7:0] $end
    $upscope $end
    $scope module inst4 $end
     $var wire  4 N data [3:0] $end
     $var wire  8 O dout [7:0] $end
     $var wire  1 \ ena $end
     $var wire  8 , seg [7:0] $end
    $upscope $end
    $scope module inst5 $end
     $var wire  4 P data [3:0] $end
     $var wire  8 Q dout [7:0] $end
     $var wire  1 \ ena $end
     $var wire  8 - seg [7:0] $end
    $upscope $end
    $scope module lookup_table_inst $end
     $var wire  8 6 ascii_data [7:0] $end
     $var wire  8 3 data [7:0] $end
     $var wire  8 3 key_data [7:0] $end
    $upscope $end
   $upscope $end
  $upscope $end
 $upscope $end
$enddefinitions $end


#0
0#
1$
0%
b00000000000000000000000000000000 &
b00000000000 '
b11111111 (
b11111111 )
b11111111 *
b11111111 +
b00000011 ,
b00000011 -
0.
0/
00
b00000000 1
b00000000 2
b00000000 3
b0000 4
b0010 5
b00000000 6
07
08
b00 9
b00000000 :
b00000000 ;
b00000000 <
b00000000 =
b00000000 >
b00000000 ?
b00000000 @
b00000000 A
b000 B
b000 C
b0000 D
b00000000000 E
b0000 F
b11111100 G
b0000 H
b11111100 I
b0000 J
b11111100 K
b0000 L
b11111100 M
b0000 N
b11111100 O
b0000 P
b11111100 Q
0R
0S
b00000000000000000000000000001010 T
b00000000000000000000000000111100 U
b0001 V
b0000 W
b0010 X
b0100 Y
b1000 Z
b00000000 [
1\
#1
#2
#3
#4
#5
1.
b0001 4
1S
#6
#7
#8
#9
#10
0S
#11
#12
#13
#14
#15
1S
#16
#17
#18
#19
#20
1#
0S
#21
#22
#23
#24
#25
b01 9
1S
#26
#27
#28
#29
#30
0S
#31
#32
#33
#34
#35
b11 9
1S
#36
#37
#38
#39
#40
b10000111000 '
0S
#41
#42
#43
#44
#45
1S
#46
#47
#48
#49
#50
0S
#51
#52
#53
#54
#55
1S
#56
#57
#58
#59
#60
0S
#61
#62
#63
#64
#65
1S
#66
#67
#68
#69
#70
0$
0S
#71
#72
#73
#74
#75
18
b10 9
1S
#76
#77
#78
#79
#80
0S
#81
#82
#83
#84
#85
08
b00 9
b0001 D
1S
#86
#87
#88
#89
#90
0S
#91
#92
#93
#94
#95
1S
#96
#97
#98
#99
#100
1$
b00000000000000000000000000000001 &
0S
#101
#102
#103
#104
#105
b01 9
1S
#106
#107
#108
#109
#110
0S
#111
#112
#113
#114
#115
b11 9
1S
#116
#117
#118
#119
#120
0S
#121
#122
#123
#124
#125
1S
#126
#127
#128
#129
#130
0$
0S
#131
#132
#133
#134
#135
18
b10 9
1S
#136
#137
#138
#139
#140
0S
#141
#142
#143
#144
#145
08
b00 9
b0010 D
1S
#146
#147
#148
#149
#150
0S
#151
#152
#153
#154
#155
1S
#156
#157
#158
#159
#160
1$
b00000000000000000000000000000010 &
0S
#161
#162
#163
#164
#165
b01 9
1S
#166
#167
#168
#169
#170
0S
#171
#172
#173
#174
#175
b11 9
1S
#176
#177
#178
#179
#180
0S
#181
#182
#183
#184
#185
1S
#186
#187
#188
#189
#190
0$
0S
#191
#192
#193
#194
#195
18
b10 9
1S
#196
#197
#198
#199
#200
0S
#201
#202
#203
#204
#205
08
b00 9
b0011 D
1S
#206
#207
#208
#209
#210
0S
#211
#212
#213
#214
#215
1S
#216
#217
#218
#219
#220
1$
1%
b00000000000000000000000000000011 &
0S
#221
#222
#223
#224
#225
b01 9
1S
#226
#227
#228
#229
#230
0S
#231
#232
#233
#234
#235
b11 9
1S
#236
#237
#238
#239
#240
0S
#241
#242
#243
#244
#245
1S
#246
#247
#248
#249
#250
0$
0S
#251
#252
#253
#254
#255
18
b10 9
1S
#256
#257
#258
#259
#260
0S
#261
#262
#263
#264
#265
08
b00 9
b0100 D
b00000001000 E
1S
#266
#267
#268
#269
#270
0S
#271
#272
#273
#274
#275
1S
#276
#277
#278
#279
#280
1$
b00000000000000000000000000000100 &
0S
#281
#282
#283
#284
#285
b01 9
1S
#286
#287
#288
#289
#290
0S
#291
#292
#293
#294
#295
b11 9
1S
#296
#297
#298
#299
#300
0S
#301
#302
#303
#304
#305
1S
#306
#307
#308
#309
#310
0$
0S
#311
#312
#313
#314
#315
18
b10 9
1S
#316
#317
#318
#319
#320
0S
#321
#322
#323
#324
#325
08
b00 9
b0101 D
b00000011000 E
1S
#326
#327
#328
#329
#330
0S
#331
#332
#333
#334
#335
1S
#336
#337
#338
#339
#340
1$
b00000000000000000000000000000101 &
0S
#341
#342
#343
#344
#345
b01 9
1S
#346
#347
#348
#349
#350
0S
#351
#352
#353
#354
#355
b11 9
1S
#356
#357
#358
#359
#360
0S
#361
#362
#363
#364
#365
1S
#366
#367
#368
#369
#370
0$
0S
#371
#372
#373
#374
#375
18
b10 9
1S
#376
#377
#378
#379
#380
0S
#381
#382
#383
#384
#385
08
b00 9
b0110 D
b00000111000 E
1S
#386
#387
#388
#389
#390
0S
#391
#392
#393
#394
#395
1S
#396
#397
#398
#399
#400
1$
0%
b00000000000000000000000000000110 &
0S
#401
#402
#403
#404
#405
b01 9
1S
#406
#407
#408
#409
#410
0S
#411
#412
#413
#414
#415
b11 9
1S
#416
#417
#418
#419
#420
0S
#421
#422
#423
#424
#425
1S
#426
#427
#428
#429
#430
0$
0S
#431
#432
#433
#434
#435
18
b10 9
1S
#436
#437
#438
#439
#440
0S
#441
#442
#443
#444
#445
08
b00 9
b0111 D
1S
#446
#447
#448
#449
#450
0S
#451
#452
#453
#454
#455
1S
#456
#457
#458
#459
#460
1$
b00000000000000000000000000000111 &
0S
#461
#462
#463
#464
#465
b01 9
1S
#466
#467
#468
#469
#470
0S
#471
#472
#473
#474
#475
b11 9
1S
#476
#477
#478
#479
#480
0S
#481
#482
#483
#484
#485
1S
#486
#487
#488
#489
#490
0$
0S
#491
#492
#493
#494
#495
18
b10 9
1S
#496
#497
#498
#499
#500
0S
#501
#502
#503
#504
#505
08
b00 9
b1000 D
1S
#506
#507
#508
#509
#510
0S
#511
#512
#513
#514
#515
1S
#516
#517
#518
#519
#520
1$
b00000000000000000000000000001000 &
0S
#521
#522
#523
#524
#525
b01 9
1S
#526
#527
#528
#529
#530
0S
#531
#532
#533
#534
#535
b11 9
1S
#536
#537
#538
#539
#540
0S
#541
#542
#543
#544
#545
1S
#546
#547
#548
#549
#550
0$
0S
#551
#552
#553
#554
#555
18
b10 9
1S
#556
#557
#558
#559
#560
0S
#561
#562
#563
#564
#565
08
b00 9
b1001 D
1S
#566
#567
#568
#569
#570
0S
#571
#572
#573
#574
#575
1S
#576
#577
#578
#579
#580
1$
b00000000000000000000000000001001 &
0S
#581
#582
#583
#584
#585
b01 9
1S
#586
#587
#588
#589
#590
0S
#591
#592
#593
#594
#595
b11 9
1S
#596
#597
#598
#599
#600
0S
#601
#602
#603
#604
#605
1S
#606
#607
#608
#609
#610
0$
0S
#611
#612
#613
#614
#615
18
b10 9
1S
#616
#617
#618
#619
#620
0S
#621
#622
#623
#624
#625
08
b00 9
b1010 D
1S
#626
#627
#628
#629
#630
0S
#631
#632
#633
#634
#635
1S
#636
#637
#638
#639
#640
1$
1%
b00000000000000000000000000001010 &
0S
#641
#642
#643
#644
#645
b01 9
1S
#646
#647
#648
#649
#650
0S
#651
#652
#653
#654
#655
b11 9
1S
#656
#657
#658
#659
#660
0S
#661
#662
#663
#664
#665
1S
#666
#667
#668
#669
#670
0$
0S
#671
#672
#673
#674
#675
18
b10 9
1S
#676
#677
#678
#679
#680
0S
#681
#682
#683
#684
#685
10
b00011100 1
08
b00 9
b00011100 :
b001 B
b0000 D
1S
#686
#687
#688
#689
#690
0S
#691
#692
#693
#694
#695
0.
1S
#696
#697
#698
#699
#700
1$
b00000000000000000000000000001011 &
0S
#701
#702
#703
#704
#705
b01100011 (
b10011111 )
b10011111 *
b01000001 +
b10011111 ,
00
b00000000 1
b00000001 2
b00011100 3
b0010 4
b1000 5
b01100001 6
17
b01 9
b001 C
b1100 F
b10011100 G
b0001 H
b01100000 I
b0001 J
b01100000 K
b0110 L
b10111110 M
b0001 N
b01100000 O
1S
#706
#707
#708
#709
#710
0S
#711
#712
#713
#714
#715
1.
b11 9
1S
#716
#717
#718
#719
#720
0%
b11111100000 '
0S
#721
#722
#723
#724
#725
1S
#726
#727
#728
#729
#730
0S
#731
#732
#733
#734
#735
1S
#736
#737
#738
#739
#740
0S
#741
#742
#743
#744
#745
1S
#746
#747
#748
#749
#750
0$
0S
#751
#752
#753
#754
#755
18
b10 9
1S
#756
#757
#758
#759
#760
0S
#761
#762
#763
#764
#765
08
b00 9
b0001 D
1S
#766
#767
#768
#769
#770
0S
#771
#772
#773
#774
#775
1S
#776
#777
#778
#779
#780
1$
b00000000000000000000000000000001 &
0S
#781
#782
#783
#784
#785
b01 9
1S
#786
#787
#788
#789
#790
0S
#791
#792
#793
#794
#795
b11 9
1S
#796
#797
#798
#799
#800
0S
#801
#802
#803
#804
#805
1S
#806
#807
#808
#809
#810
0$
0S
#811
#812
#813
#814
#815
18
b10 9
1S
#816
#817
#818
#819
#820
0S
#821
#822
#823
#824
#825
08
b00 9
b0010 D
1S
#826
#827
#828
#829
#830
0S
#831
#832
#833
#834
#835
1S
#836
#837
#838
#839
#840
1$
b00000000000000000000000000000010 &
0S
#841
#842
#843
#844
#845
b01 9
1S
#846
#847
#848
#849
#850
0S
#851
#852
#853
#854
#855
b11 9
1S
#856
#857
#858
#859
#860
0S
#861
#862
#863
#864
#865
1S
#866
#867
#868
#869
#870
0$
0S
#871
#872
#873
#874
#875
18
b10 9
1S
#876
#877
#878
#879
#880
0S
#881
#882
#883
#884
#885
08
b00 9
b0011 D
1S
#886
#887
#888
#889
#890
0S
#891
#892
#893
#894
#895
1S
#896
#897
#898
#899
#900
1$
b00000000000000000000000000000011 &
0S
#901
#902
#903
#904
#905
b01 9
1S
#906
#907
#908
#909
#910
0S
#911
#912
#913
#914
#915
b11 9
1S
#916
#917
#918
#919
#920
0S
#921
#922
#923
#924
#925
1S
#926
#927
#928
#929
#930
0$
0S
#931
#932
#933
#934
#935
18
b10 9
1S
#936
#937
#938
#939
#940
0S
#941
#942
#943
#944
#945
08
b00 9
b0100 D
b00000110000 E
1S
#946
#947
#948
#949
#950
0S
#951
#952
#953
#954
#955
1S
#956
#957
#958
#959
#960
1$
b00000000000000000000000000000100 &
0S
#961
#962
#963
#964
#965
b01 9
1S
#966
#967
#968
#969
#970
0S
#971
#972
#973
#974
#975
b11 9
1S
#976
#977
#978
#979
#980
0S
#981
#982
#983
#984
#985
1S
#986
#987
#988
#989
#990
0$
0S
#991
#992
#993
#994
#995
18
b10 9
1S
#996
#997
#998
#999
#1000
0S
#1001
#1002
#1003
#1004
#1005
08
b00 9
b0101 D
b00000100000 E
1S
#1006
#1007
#1008
#1009
#1010
0S
#1011
#1012
#1013
#1014
#1015
1S
#1016
#1017
#1018
#1019
#1020
1$
1%
b00000000000000000000000000000101 &
0S
#1021
#1022
#1023
#1024
#1025
b01 9
1S
#1026
#1027
#1028
#1029
#1030
0S
#1031
#1032
#1033
#1034
#1035
b11 9
1S
#1036
#1037
#1038
#1039
#1040
0S
#1041
#1042
#1043
#1044
#1045
1S
#1046
#1047
#1048
#1049
#1050
0$
0S
#1051
#1052
#1053
#1054
#1055
18
b10 9
1S
#1056
#1057
#1058
#1059
#1060
0S
#1061
#1062
#1063
#1064
#1065
08
b00 9
b0110 D
1S
#1066
#1067
#1068
#1069
#1070
0S
#1071
#1072
#1073
#1074
#1075
1S
#1076
#1077
#1078
#1079
#1080
1$
b00000000000000000000000000000110 &
0S
#1081
#1082
#1083
#1084
#1085
b01 9
1S
#1086
#1087
#1088
#1089
#1090
0S
#1091
#1092
#1093
#1094
#1095
b11 9
1S
#1096
#1097
#1098
#1099
#1100
0S
#1101
#1102
#1103
#1104
#1105
1S
#1106
#1107
#1108
#1109
#1110
0$
0S
#1111
#1112
#1113
#1114
#1115
18
b10 9
1S
#1116
#1117
#1118
#1119
#1120
0S
#1121
#1122
#1123
#1124
#1125
08
b00 9
b0111 D
b00001100000 E
1S
#1126
#1127
#1128
#1129
#1130
0S
#1131
#1132
#1133
#1134
#1135
1S
#1136
#1137
#1138
#1139
#1140
1$
b00000000000000000000000000000111 &
0S
#1141
#1142
#1143
#1144
#1145
b01 9
1S
#1146
#1147
#1148
#1149
#1150
0S
#1151
#1152
#1153
#1154
#1155
b11 9
1S
#1156
#1157
#1158
#1159
#1160
0S
#1161
#1162
#1163
#1164
#1165
1S
#1166
#1167
#1168
#1169
#1170
0$
0S
#1171
#1172
#1173
#1174
#1175
18
b10 9
1S
#1176
#1177
#1178
#1179
#1180
0S
#1181
#1182
#1183
#1184
#1185
08
b00 9
b1000 D
b00011100000 E
1S
#1186
#1187
#1188
#1189
#1190
0S
#1191
#1192
#1193
#1194
#1195
1S
#1196
#1197
#1198
#1199
#1200
1$
b00000000000000000000000000001000 &
0S
#1201
#1202
#1203
#1204
#1205
b01 9
1S
#1206
#1207
#1208
#1209
#1210
0S
#1211
#1212
#1213
#1214
#1215
b11 9
1S
#1216
#1217
#1218
#1219
#1220
0S
#1221
#1222
#1223
#1224
#1225
1S
#1226
#1227
#1228
#1229
#1230
0$
0S
#1231
#1232
#1233
#1234
#1235
18
b10 9
1S
#1236
#1237
#1238
#1239
#1240
0S
#1241
#1242
#1243
#1244
#1245
08
b00 9
b1001 D
b00111100000 E
1S
#1246
#1247
#1248
#1249
#1250
0S
#1251
#1252
#1253
#1254
#1255
1S
#1256
#1257
#1258
#1259
#1260
1$
b00000000000000000000000000001001 &
0S
#1261
#1262
#1263
#1264
#1265
b01 9
1S
#1266
#1267
#1268
#1269
#1270
0S
#1271
#1272
#1273
#1274
#1275
b11 9
1S
#1276
#1277
#1278
#1279
#1280
0S
#1281
#1282
#1283
#1284
#1285
1S
#1286
#1287
#1288
#1289
#1290
0$
0S
#1291
#1292
#1293
#1294
#1295
18
b10 9
1S
#1296
#1297
#1298
#1299
#1300
0S
#1301
#1302
#1303
#1304
#1305
08
b00 9
b1010 D
b01111100000 E
1S
#1306
#1307
#1308
#1309
#1310
0S
#1311
#1312
#1313
#1314
#1315
1S
#1316
#1317
#1318
#1319
#1320
1$
b00000000000000000000000000001010 &
0S
#1321
#1322
#1323
#1324
#1325
b01 9
1S
#1326
#1327
#1328
#1329
#1330
0S
#1331
#1332
#1333
#1334
#1335
b11 9
1S
#1336
#1337
#1338
#1339
#1340
0S
#1341
#1342
#1343
#1344
#1345
1S
#1346
#1347
#1348
#1349
#1350
0$
0S
#1351
#1352
#1353
#1354
#1355
18
b10 9
1S
#1356
#1357
#1358
#1359
#1360
0S
#1361
#1362
#1363
#1364
#1365
10
b11110000 1
b0100 5
08
b00 9
b11110000 ;
b010 B
b0000 D
1S
#1366
#1367
#1368
#1369
#1370
0S
#1371
#1372
#1373
#1374
#1375
0.
1S
#1376
#1377
#1378
#1379
#1380
1$
b00000000000000000000000000001011 &
0S
#1381
#1382
#1383
#1384
#1385
b11111111 (
b11111111 )
b11111111 *
b11111111 +
b00100101 ,
00
b00000000 1
b00000010 2
b11110000 3
b0100 4
b0001 5
b00000000 6
07
b01 9
b010 C
b0000 F
b11111100 G
b1111 H
b10001110 I
b0000 J
b11111100 K
b0000 L
b11111100 M
b0010 N
b11011010 O
1S
#1386
#1387
#1388
#1389
#1390
0S
#1391
#1392
#1393
#1394
#1395
1.
b11 9
1S
#1396
#1397
#1398
#1399
#1400
0%
b10000111000 '
0S
#1401
#1402
#1403
#1404
#1405
1S
#1406
#1407
#1408
#1409
#1410
0S
#1411
#1412
#1413
#1414
#1415
1S
#1416
#1417
#1418
#1419
#1420
0S
#1421
#1422
#1423
#1424
#1425
1S
#1426
#1427
#1428
#1429
#1430
0$
0S
#1431
#1432
#1433
#1434
#1435
18
b10 9
1S
#1436
#1437
#1438
#1439
#1440
0S
#1441
#1442
#1443
#1444
#1445
08
b00 9
b0001 D
1S
#1446
#1447
#1448
#1449
#1450
0S
#1451
#1452
#1453
#1454
#1455
1S
#1456
#1457
#1458
#1459
#1460
1$
b00000000000000000000000000000001 &
0S
#1461
#1462
#1463
#1464
#1465
b01 9
1S
#1466
#1467
#1468
#1469
#1470
0S
#1471
#1472
#1473
#1474
#1475
b11 9
1S
#1476
#1477
#1478
#1479
#1480
0S
#1481
#1482
#1483
#1484
#1485
1S
#1486
#1487
#1488
#1489
#1490
0$
0S
#1491
#1492
#1493
#1494
#1495
18
b10 9
1S
#1496
#1497
#1498
#1499
#1500
0S
#1501
#1502
#1503
#1504
#1505
08
b00 9
b0010 D
1S
#1506
#1507
#1508
#1509
#1510
0S
#1511
#1512
#1513
#1514
#1515
1S
#1516
#1517
#1518
#1519
#1520
1$
b00000000000000000000000000000010 &
0S
#1521
#1522
#1523
#1524
#1525
b01 9
1S
#1526
#1527
#1528
#1529
#1530
0S
#1531
#1532
#1533
#1534
#1535
b11 9
1S
#1536
#1537
#1538
#1539
#1540
0S
#1541
#1542
#1543
#1544
#1545
1S
#1546
#1547
#1548
#1549
#1550
0$
0S
#1551
#1552
#1553
#1554
#1555
18
b10 9
1S
#1556
#1557
#1558
#1559
#1560
0S
#1561
#1562
#1563
#1564
#1565
08
b00 9
b0011 D
1S
#1566
#1567
#1568
#1569
#1570
0S
#1571
#1572
#1573
#1574
#1575
1S
#1576
#1577
#1578
#1579
#1580
1$
1%
b00000000000000000000000000000011 &
0S
#1581
#1582
#1583
#1584
#1585
b01 9
1S
#1586
#1587
#1588
#1589
#1590
0S
#1591
#1592
#1593
#1594
#1595
b11 9
1S
#1596
#1597
#1598
#1599
#1600
0S
#1601
#1602
#1603
#1604
#1605
1S
#1606
#1607
#1608
#1609
#1610
0$
0S
#1611
#1612
#1613
#1614
#1615
18
b10 9
1S
#1616
#1617
#1618
#1619
#1620
0S
#1621
#1622
#1623
#1624
#1625
08
b00 9
b0100 D
b01111101000 E
1S
#1626
#1627
#1628
#1629
#1630
0S
#1631
#1632
#1633
#1634
#1635
1S
#1636
#1637
#1638
#1639
#1640
1$
b00000000000000000000000000000100 &
0S
#1641
#1642
#1643
#1644
#1645
b01 9
1S
#1646
#1647
#1648
#1649
#1650
0S
#1651
#1652
#1653
#1654
#1655
b11 9
1S
#1656
#1657
#1658
#1659
#1660
0S
#1661
#1662
#1663
#1664
#1665
1S
#1666
#1667
#1668
#1669
#1670
0$
0S
#1671
#1672
#1673
#1674
#1675
18
b10 9
1S
#1676
#1677
#1678
#1679
#1680
0S
#1681
#1682
#1683
#1684
#1685
08
b00 9
b0101 D
b01111111000 E
1S
#1686
#1687
#1688
#1689
#1690
0S
#1691
#1692
#1693
#1694
#1695
1S
#1696
#1697
#1698
#1699
#1700
1$
b00000000000000000000000000000101 &
0S
#1701
#1702
#1703
#1704
#1705
b01 9
1S
#1706
#1707
#1708
#1709
#1710
0S
#1711
#1712
#1713
#1714
#1715
b11 9
1S
#1716
#1717
#1718
#1719
#1720
0S
#1721
#1722
#1723
#1724
#1725
1S
#1726
#1727
#1728
#1729
#1730
0$
0S
#1731
#1732
#1733
#1734
#1735
18
b10 9
1S
#1736
#1737
#1738
#1739
#1740
0S
#1741
#1742
#1743
#1744
#1745
08
b00 9
b0110 D
1S
#1746
#1747
#1748
#1749
#1750
0S
#1751
#1752
#1753
#1754
#1755
1S
#1756
#1757
#1758
#1759
#1760
1$
0%
b00000000000000000000000000000110 &
0S
#1761
#1762
#1763
#1764
#1765
b01 9
1S
#1766
#1767
#1768
#1769
#1770
0S
#1771
#1772
#1773
#1774
#1775
b11 9
1S
#1776
#1777
#1778
#1779
#1780
0S
#1781
#1782
#1783
#1784
#1785
1S
#1786
#1787
#1788
#1789
#1790
0$
0S
#1791
#1792
#1793
#1794
#1795
18
b10 9
1S
#1796
#1797
#1798
#1799
#1800
0S
#1801
#1802
#1803
#1804
#1805
08
b00 9
b0111 D
b01110111000 E
1S
#1806
#1807
#1808
#1809
#1810
0S
#1811
#1812
#1813
#1814
#1815
1S
#1816
#1817
#1818
#1819
#1820
1$
b00000000000000000000000000000111 &
0S
#1821
#1822
#1823
#1824
#1825
b01 9
1S
#1826
#1827
#1828
#1829
#1830
0S
#1831
#1832
#1833
#1834
#1835
b11 9
1S
#1836
#1837
#1838
#1839
#1840
0S
#1841
#1842
#1843
#1844
#1845
1S
#1846
#1847
#1848
#1849
#1850
0$
0S
#1851
#1852
#1853
#1854
#1855
18
b10 9
1S
#1856
#1857
#1858
#1859
#1860
0S
#1861
#1862
#1863
#1864
#1865
08
b00 9
b1000 D
b01100111000 E
1S
#1866
#1867
#1868
#1869
#1870
0S
#1871
#1872
#1873
#1874
#1875
1S
#1876
#1877
#1878
#1879
#1880
1$
b00000000000000000000000000001000 &
0S
#1881
#1882
#1883
#1884
#1885
b01 9
1S
#1886
#1887
#1888
#1889
#1890
0S
#1891
#1892
#1893
#1894
#1895
b11 9
1S
#1896
#1897
#1898
#1899
#1900
0S
#1901
#1902
#1903
#1904
#1905
1S
#1906
#1907
#1908
#1909
#1910
0$
0S
#1911
#1912
#1913
#1914
#1915
18
b10 9
1S
#1916
#1917
#1918
#1919
#1920
0S
#1921
#1922
#1923
#1924
#1925
08
b00 9
b1001 D
b01000111000 E
1S
#1926
#1927
#1928
#1929
#1930
0S
#1931
#1932
#1933
#1934
#1935
1S
#1936
#1937
#1938
#1939
#1940
1$
b00000000000000000000000000001001 &
0S
#1941
#1942
#1943
#1944
#1945
b01 9
1S
#1946
#1947
#1948
#1949
#1950
0S
#1951
#1952
#1953
#1954
#1955
b11 9
1S
#1956
#1957
#1958
#1959
#1960
0S
#1961
#1962
#1963
#1964
#1965
1S
#1966
#1967
#1968
#1969
#1970
0$
0S
#1971
#1972
#1973
#1974
#1975
18
b10 9
1S
#1976
#1977
#1978
#1979
#1980
0S
#1981
#1982
#1983
#1984
#1985
08
b00 9
b1010 D
b00000111000 E
1S
#1986
#1987
#1988
#1989
#1990
0S
#1991
#1992
#1993
#1994
#1995
1S
#1996
#1997
#1998
#1999
#2000
1$
1%
b00000000000000000000000000001010 &
0S
#2001
#2002
#2003
#2004
#2005
b01 9
1S
#2006
#2007
#2008
#2009
#2010
0S
#2011
#2012
#2013
#2014
#2015
b11 9
1S
#2016
#2017
#2018
#2019
#2020
0S
#2021
#2022
#2023
#2024
#2025
1S
#2026
#2027
#2028
#2029
#2030
0$
0S
#2031
#2032
#2033
#2034
#2035
18
b10 9
1S
#2036
#2037
#2038
#2039
#2040
0S
#2041
#2042
#2043
#2044
#2045
10
b00011100 1
08
b00 9
b00011100 <
b011 B
b0000 D
1S
#2046
#2047
#2048
#2049
#2050
0S
#2051
#2052
#2053
#2054
#2055
0.
1S
#2056
#2057
#2058
#2059
#2060
1$
b00000000000000000000000000001011 &
0S
#2061
#2062
#2063
#2064
#2065
00
b00000000 1
b00011100 3
b0001 4
b0010 5
b01100001 6
b01 9
b011 C
b1100 F
b10011100 G
b0001 H
b01100000 I
b0001 J
b01100000 K
b0110 L
b10111110 M
1S
#2066
#2067
#2068
#2069
#2070
0S
#2071
#2072
#2073
#2074
#2075
1.
b11 9
1S
#2076
#2077
#2078
#2079
#2080
0%
b11000110110 '
0S
#2081
#2082
#2083
#2084
#2085
1S
#2086
#2087
#2088
#2089
#2090
0S
#2091
#2092
#2093
#2094
#2095
1S
#2096
#2097
#2098
#2099
#2100
0S
#2101
#2102
#2103
#2104
#2105
1S
#2106
#2107
#2108
#2109
#2110
0$
0S
#2111
#2112
#2113
#2114
#2115
18
b10 9
1S
#2116
#2117
#2118
#2119
#2120
0S
#2121
#2122
#2123
#2124
#2125
08
b00 9
b0001 D
1S
#2126
#2127
#2128
#2129
#2130
0S
#2131
#2132
#2133
#2134
#2135
1S
#2136
#2137
#2138
#2139
#2140
1$
1%
b00000000000000000000000000000001 &
0S
#2141
#2142
#2143
#2144
#2145
b01 9
1S
#2146
#2147
#2148
#2149
#2150
0S
#2151
#2152
#2153
#2154
#2155
b11 9
1S
#2156
#2157
#2158
#2159
#2160
0S
#2161
#2162
#2163
#2164
#2165
1S
#2166
#2167
#2168
#2169
#2170
0$
0S
#2171
#2172
#2173
#2174
#2175
18
b10 9
1S
#2176
#2177
#2178
#2179
#2180
0S
#2181
#2182
#2183
#2184
#2185
08
b00 9
b0010 D
b00000111010 E
1S
#2186
#2187
#2188
#2189
#2190
0S
#2191
#2192
#2193
#2194
#2195
1S
#2196
#2197
#2198
#2199
#2200
1$
b00000000000000000000000000000010 &
0S
#2201
#2202
#2203
#2204
#2205
b01 9
1S
#2206
#2207
#2208
#2209
#2210
0S
#2211
#2212
#2213
#2214
#2215
b11 9
1S
#2216
#2217
#2218
#2219
#2220
0S
#2221
#2222
#2223
#2224
#2225
1S
#2226
#2227
#2228
#2229
#2230
0$
0S
#2231
#2232
#2233
#2234
#2235
18
b10 9
1S
#2236
#2237
#2238
#2239
#2240
0S
#2241
#2242
#2243
#2244
#2245
08
b00 9
b0011 D
b00000111110 E
1S
#2246
#2247
#2248
#2249
#2250
0S
#2251
#2252
#2253
#2254
#2255
1S
#2256
#2257
#2258
#2259
#2260
1$
0%
b00000000000000000000000000000011 &
0S
#2261
#2262
#2263
#2264
#2265
b01 9
1S
#2266
#2267
#2268
#2269
#2270
0S
#2271
#2272
#2273
#2274
#2275
b11 9
1S
#2276
#2277
#2278
#2279
#2280
0S
#2281
#2282
#2283
#2284
#2285
1S
#2286
#2287
#2288
#2289
#2290
0$
0S
#2291
#2292
#2293
#2294
#2295
18
b10 9
1S
#2296
#2297
#2298
#2299
#2300
0S
#2301
#2302
#2303
#2304
#2305
08
b00 9
b0100 D
b00000110110 E
1S
#2306
#2307
#2308
#2309
#2310
0S
#2311
#2312
#2313
#2314
#2315
1S
#2316
#2317
#2318
#2319
#2320
1$
1%
b00000000000000000000000000000100 &
0S
#2321
#2322
#2323
#2324
#2325
b01 9
1S
#2326
#2327
#2328
#2329
#2330
0S
#2331
#2332
#2333
#2334
#2335
b11 9
1S
#2336
#2337
#2338
#2339
#2340
0S
#2341
#2342
#2343
#2344
#2345
1S
#2346
#2347
#2348
#2349
#2350
0$
0S
#2351
#2352
#2353
#2354
#2355
18
b10 9
1S
#2356
#2357
#2358
#2359
#2360
0S
#2361
#2362
#2363
#2364
